Properties — sol_properties • solong
…
      prop
      string: if provided, return only the property matching this name

    Value

    data.frame

    See also

    sol_set_property

    Examples

sol_properties() ## all properties that solong knows about
#> # A tibble: 29 x 4
#>    property         units class_name  notes                                     
#>    <chr>            <chr> <chr>       <chr>                                     
#>  1 lower rostral l~ mm    solprop_LRL ""                                        
#>  2 lower hood leng~ mm    solprop_LHL ""                                        
#>  3 hood length      mm    solprop_HL  ""                                        
#>  4 crest length     mm    solprop_CL  ""                                        
#>  5 mantle length    mm    solprop_ML  ""                                        
#>  6 shell length     mm    solprop_SHL ""                                        
#>  7 standard length  mm    solprop_SL  ""                                        
#>  8 carapace length  mm    solprop_CPL ""                                        
#>  9 removed carapac~ mm    solprop_RC~ ""                                        
#> 10 total length     mm    solprop_TL  Note that the definition of total length ~
#> # ... with 19 more rows
…
